<svg width="220" height="167" viewBox="0 0 220 167" fill="none" xmlns="http://www.w3.org/2000/svg">
    <defs>
        <clipPath id="clip0_99_1328">
            <rect width="220" height="167" fill="white" />
        </clipPath>
    </defs>
    <g clip-path="url(#clip0_99_1328)">
        <path
            d="M88.0326 34.632H87.23V12.696C87.23 11.0287 86.9009 9.37778 86.2614 7.83744C85.6219 6.29709 84.6846 4.8975 83.503 3.71857C82.3213 2.53964 80.9185 1.60446 79.3747 0.966427C77.8308 0.328394 76.1761 1.41263e-06 74.505 0H27.9243C24.5494 -6.41899e-06 21.3127 1.33759 18.9263 3.71854C16.5399 6.09949 15.1992 9.32875 15.1992 12.6959V133.039C15.1992 134.706 15.5284 136.357 16.1678 137.897C16.8073 139.437 17.7447 140.837 18.9263 142.016C20.1079 143.195 21.5107 144.13 23.0546 144.768C24.5984 145.406 26.2531 145.734 27.9242 145.734H74.505C77.8798 145.734 81.1165 144.397 83.5029 142.016C85.8893 139.635 87.23 136.406 87.23 133.039V50.2464H88.0326V34.632Z"
            fill="#3F3D56" />
        <path
            d="M75.019 3.3031H68.9386C69.2182 3.98707 69.325 4.72915 69.2494 5.46397C69.1739 6.19879 68.9184 6.9038 68.5054 7.51689C68.0924 8.12998 67.5347 8.63233 66.8813 8.9797C66.2279 9.32706 65.4989 9.50877 64.7585 9.50883H38.073C37.3326 9.50878 36.6036 9.32706 35.9502 8.9797C35.2968 8.63234 34.7391 8.12999 34.3261 7.5169C33.9131 6.90381 33.6576 6.1988 33.5821 5.46398C33.5065 4.72916 33.6133 3.98707 33.8929 3.3031H28.2139C26.9659 3.3031 25.7302 3.54834 24.5772 4.02481C23.4243 4.50129 22.3767 5.19967 21.4943 6.08008C20.6119 6.96048 19.9119 8.00568 19.4343 9.156C18.9567 10.3063 18.7109 11.5392 18.7109 12.7843V132.95C18.7109 134.195 18.9567 135.428 19.4343 136.579C19.9119 137.729 20.6118 138.774 21.4943 139.655C22.3767 140.535 23.4243 141.233 24.5772 141.71C25.7302 142.186 26.9659 142.431 28.2138 142.431H75.019C76.2669 142.431 77.5026 142.186 78.6556 141.71C79.8085 141.233 80.8561 140.535 81.7385 139.655C82.6209 138.774 83.3209 137.729 83.7985 136.579C84.2761 135.428 84.5219 134.195 84.5219 132.95V12.7843C84.5219 11.5392 84.2761 10.3063 83.7985 9.156C83.3209 8.00568 82.6209 6.96048 81.7385 6.08008C80.8561 5.19967 79.8085 4.50129 78.6556 4.02481C77.5026 3.54834 76.2669 3.3031 75.019 3.3031Z"
            fill="white" />
        <path
            d="M102.963 145.755H0.269537C0.198051 145.755 0.129493 145.727 0.0789453 145.676C0.0283973 145.626 0 145.558 0 145.486C0 145.415 0.0283973 145.347 0.0789453 145.296C0.129493 145.246 0.198051 145.217 0.269537 145.217H102.963C103.035 145.217 103.103 145.246 103.154 145.296C103.204 145.347 103.233 145.415 103.233 145.486C103.233 145.558 103.204 145.626 103.154 145.676C103.103 145.727 103.035 145.755 102.963 145.755Z"
            fill="#CBCBCB" />
        <path
            d="M51.6158 92.9606C64.1866 92.9606 74.3772 82.7933 74.3772 70.2512C74.3772 57.7092 64.1866 47.5419 51.6158 47.5419C39.0451 47.5419 28.8545 57.7092 28.8545 70.2512C28.8545 82.7933 39.0451 92.9606 51.6158 92.9606Z"
            fill="#F38100" />
        <path
            d="M49.3604 78.9141C48.8484 78.915 48.3499 78.7497 47.9402 78.4432L47.9148 78.4242L42.5656 74.3416C42.3179 74.1521 42.11 73.9157 41.9538 73.6461C41.7976 73.3764 41.6961 73.0787 41.6552 72.7699C41.6144 72.4611 41.6348 72.1474 41.7155 71.8465C41.7962 71.5456 41.9354 71.2635 42.1254 71.0163C42.3153 70.7691 42.5522 70.5617 42.8225 70.4059C43.0927 70.25 43.3911 70.1488 43.7006 70.108C44.0101 70.0673 44.3246 70.0877 44.6262 70.1682C44.9278 70.2486 45.2105 70.3876 45.4582 70.5771L48.923 73.228L57.1105 62.5709C57.3004 62.3238 57.5372 62.1165 57.8073 61.9607C58.0775 61.8049 58.3758 61.7038 58.6851 61.663C58.9945 61.6222 59.3089 61.6426 59.6103 61.7231C59.9117 61.8035 60.1944 61.9425 60.442 62.1319L60.4427 62.1324L60.3919 62.2028L60.4441 62.1324C60.9437 62.5155 61.2705 63.0807 61.3529 63.704C61.4353 64.3272 61.2665 64.9577 60.8836 65.4569L51.2533 77.9864C51.0305 78.2751 50.7441 78.5087 50.4162 78.6691C50.0883 78.8295 49.7277 78.9124 49.3625 78.9113L49.3604 78.9141Z"
            fill="white" />
        <path
            d="M187.125 147.987C187.402 147.541 187.728 147.126 188.097 146.752C188.249 146.594 188.409 146.446 188.575 146.301C189.581 145.408 190.808 144.797 192.129 144.534C193.45 144.27 194.818 144.362 196.092 144.8C197.365 145.239 198.499 146.007 199.376 147.028C200.253 148.048 200.842 149.283 201.082 150.606C202.193 146.504 199.3 142.464 196.39 139.361C193.479 136.259 190.152 132.855 190.169 128.605C190.177 126.239 191.337 124.129 193.088 122.565C193.142 122.517 193.196 122.47 193.251 122.424C195.367 120.614 198.09 119.667 200.876 119.773C206.051 120.05 210.569 123.52 213.707 127.636C218.758 134.258 220.971 143.555 217.435 151.094C214.325 157.725 207.692 161.662 200.922 164.827C199.977 165.269 199.033 165.698 198.092 166.114C198.085 166.115 198.079 166.12 198.072 166.121C198.027 166.141 197.982 166.161 197.939 166.182C197.745 166.267 197.55 166.353 197.358 166.437L197.447 166.495L197.725 166.675C197.629 166.617 197.533 166.56 197.437 166.502C197.408 166.484 197.378 166.468 197.349 166.45C194.024 164.46 190.653 162.354 188.356 159.246C185.974 156.02 185.016 151.398 187.125 147.987Z"
            fill="#F1F1F1" />
        <path
            d="M209.308 140.494C210.045 142.165 210.533 143.935 210.757 145.746C210.934 147.362 210.868 148.994 210.56 150.59C209.9 153.869 208.46 156.943 206.362 159.551C204.778 161.532 202.951 163.304 200.922 164.827C199.977 165.27 199.033 165.698 198.092 166.114C198.085 166.115 198.079 166.12 198.072 166.121C198.027 166.141 197.982 166.161 197.939 166.182C197.745 166.267 197.55 166.353 197.358 166.437L197.447 166.495L197.725 166.675C197.629 166.617 197.533 166.56 197.437 166.502C197.408 166.484 197.378 166.468 197.349 166.45C198.081 163.896 198.189 161.205 197.663 158.601C197.137 155.998 195.994 153.558 194.329 151.486C192.654 149.44 190.519 147.818 188.097 146.752C188.249 146.594 188.409 146.446 188.575 146.301C189.508 146.729 190.401 147.238 191.244 147.822C194.26 149.902 196.524 152.894 197.702 156.358C198.754 159.5 198.885 162.876 198.081 166.089C198.247 165.981 198.415 165.869 198.578 165.758C201.675 163.674 204.53 161.171 206.68 158.101C208.535 155.507 209.722 152.498 210.136 149.339C210.548 145.887 209.683 142.494 208.138 139.414C206.433 136.12 204.284 133.073 201.751 130.359C199.208 127.571 196.331 125.103 193.187 123.012C193.116 122.964 193.066 122.891 193.048 122.808C193.029 122.725 193.044 122.638 193.088 122.565C193.122 122.498 193.18 122.448 193.251 122.424C193.287 122.415 193.325 122.414 193.361 122.421C193.397 122.429 193.432 122.444 193.461 122.467C193.849 122.725 194.234 122.986 194.615 123.254C197.781 125.492 200.657 128.113 203.176 131.057C205.611 133.896 207.826 137.049 209.308 140.494Z"
            fill="white" />
        <path
            d="M141.518 10.5445C144.188 10.5445 146.352 8.38524 146.352 5.72165C146.352 3.05807 144.188 0.898804 141.518 0.898804C138.849 0.898804 136.685 3.05807 136.685 5.72165C136.685 8.38524 138.849 10.5445 141.518 10.5445Z"
            fill="#F1F1F1" />
        <path
            d="M201.625 75.0856C203.253 75.0856 204.572 73.7692 204.572 72.1452C204.572 70.5213 203.253 69.2048 201.625 69.2048C199.997 69.2048 198.678 70.5213 198.678 72.1452C198.678 73.7692 199.997 75.0856 201.625 75.0856Z"
            fill="#F1F1F1" />
        <path
            d="M115.373 83.1533C117.001 83.1533 118.32 81.8368 118.32 80.2129C118.32 78.5889 117.001 77.2725 115.373 77.2725C113.745 77.2725 112.426 78.5889 112.426 80.2129C112.426 81.8368 113.745 83.1533 115.373 83.1533Z"
            fill="#F1F1F1" />
        <path
            d="M117.037 167H219.731C219.802 167 219.871 166.972 219.921 166.921C219.972 166.871 220 166.802 220 166.731C220 166.66 219.972 166.591 219.921 166.541C219.871 166.49 219.802 166.462 219.731 166.462H117.037C116.966 166.462 116.897 166.49 116.847 166.541C116.796 166.591 116.768 166.66 116.768 166.731C116.768 166.802 116.796 166.871 116.847 166.921C116.897 166.972 116.966 167 117.037 167Z"
            fill="#CBCBCB" />
        <path
            d="M208.398 25.9872C208.532 25.0321 208.311 24.0607 207.776 23.2573C207.241 22.4538 206.43 21.8741 205.495 21.6279C204.56 21.3817 203.567 21.4863 202.704 21.9216C201.842 22.357 201.169 23.093 200.814 23.9902L192.48 33.5219L194.926 40.3355L203.306 29.1981C203.853 29.3728 204.432 29.4259 205.001 29.3534C205.571 29.2809 206.118 29.0847 206.603 28.7786C207.089 28.4725 207.501 28.0639 207.811 27.5816C208.121 27.0993 208.321 26.5551 208.398 25.9872Z"
            fill="#FFB7B7" />
        <path d="M173.854 63.0752L201.517 33.6206L197.785 27.7021L163.09 56.978L173.854 63.0752Z"
            fill="#3F3D56" />
        <path
            d="M167.681 45.1787C173.04 45.1787 177.384 40.8443 177.384 35.4976C177.384 30.1508 173.04 25.8164 167.681 25.8164C162.322 25.8164 157.978 30.1508 157.978 35.4976C157.978 40.8443 162.322 45.1787 167.681 45.1787Z"
            fill="#2F2E41" />
        <path
            d="M168.461 30.0286C170.549 27.916 173.076 26.2858 175.863 25.2527C177.653 24.5914 179.6 24.1827 181.471 24.5583C183.342 24.9339 185.111 26.2251 185.633 28.0564C186.059 29.5538 185.619 31.1661 184.957 32.5757C184.294 33.9854 183.41 35.2925 182.874 36.7547C182.328 38.2467 182.164 39.8513 182.396 41.4227C182.629 42.9941 183.251 44.4827 184.207 45.7532C185.163 47.0238 186.421 48.0361 187.868 48.6983C189.315 49.3605 190.905 49.6517 192.494 49.5453C190.656 49.7911 188.962 50.6529 187.165 51.1117C185.368 51.5704 183.248 51.5393 181.913 50.2551C180.5 48.8964 180.472 46.6873 180.54 44.7308C180.642 41.8224 180.743 38.914 180.845 36.0057C180.897 34.5224 180.941 32.9917 180.405 31.6073C179.868 30.2229 178.594 29.0107 177.107 29.0233C175.98 29.0328 174.982 29.7142 174.078 30.3862C173.174 31.0582 172.217 31.7751 171.094 31.875C169.971 31.975 168.689 31.1459 168.773 30.0242L168.461 30.0286Z"
            fill="#2F2E41" />
        <path
            d="M130.827 100.502C129.895 100.76 128.901 100.668 128.033 100.244C127.164 99.82 126.482 99.0928 126.116 98.2002C125.749 97.3077 125.723 96.312 126.043 95.4017C126.363 94.4915 127.006 93.7299 127.851 93.2613L136.234 83.7728L143.324 85.3011L133.352 95.0463C133.597 95.5644 133.725 96.1299 133.728 96.7028C133.73 97.2757 133.607 97.8422 133.366 98.3624C133.125 98.8825 132.773 99.3437 132.334 99.7133C131.896 100.083 131.381 100.352 130.827 100.502H130.827Z"
            fill="#FFB7B7" />
        <path d="M158.406 66.5325L137.513 92.6985L131.145 89.7812L155.702 51.6361L158.406 66.5325Z"
            fill="#3F3D56" />
        <path d="M141.735 145.543L136.756 145.465L137.355 162.398H141.734L141.735 145.543Z"
            fill="#FFB7B7" />
        <path
            d="M142.852 160.971L134.227 160.971H134.226C132.769 160.971 131.37 161.549 130.34 162.577C129.309 163.606 128.73 165.001 128.729 166.455V166.633L142.852 166.634L142.852 160.971Z"
            fill="#2F2E41" />
        <path d="M174.704 141.052L169.265 144.536L180.145 157.596L183.831 155.235L174.704 141.052Z"
            fill="#FFB7B7" />
        <path
            d="M183.998 153.433L176.74 158.082L176.74 158.082C175.513 158.868 174.65 160.108 174.339 161.529C174.029 162.95 174.297 164.436 175.084 165.66L175.181 165.81L187.065 158.198L183.998 153.433Z"
            fill="#2F2E41" />
        <path
            d="M176.643 89.3464C176.643 89.3464 164.557 49.2967 160.673 48.7555C156.788 48.2143 150.53 59.0318 150.53 59.0318C142.416 69.3606 134.05 102.818 134.05 102.818C134.05 102.818 147.997 103.689 158.193 109.101C168.389 114.513 180.421 108.827 180.421 108.827L176.643 89.3464Z"
            fill="#3F3D56" />
        <path opacity="0.1"
            d="M176.643 89.3463C176.643 89.3463 164.557 49.2966 160.673 48.7554C156.788 48.2142 152.12 59.1415 152.12 59.1415C148.077 75.8146 134.05 102.818 134.05 102.818C134.05 102.818 147.997 103.688 158.193 109.101C168.389 114.513 180.421 108.827 180.421 108.827L176.643 89.3463Z"
            fill="black" />
        <path
            d="M166.726 77.3637V97.4884L169.1 126.641L180.96 148.692L175.3 152.726L159.127 131.75L152.731 110.922L142.686 157.029L135.139 156.491L140.38 92.5653L150.326 74.5718L166.726 77.3637Z"
            fill="#2F2E41" />
        <path
            d="M154.541 57.8987C150.768 61.6636 154.272 65.6974 154.272 65.6974L149.959 75.3786L166.94 79.9502L172.874 53.4942L168.831 49.1915C160.745 48.9226 160.74 48.7554 160.74 48.7554C159.324 50.1387 154.541 57.8987 154.541 57.8987Z"
            fill="#F38100" />
        <path
            d="M173.558 50.7534C172.787 50.1854 171.91 49.7757 170.979 49.5481C170.048 49.3205 169.081 49.2794 168.134 49.4273C167.187 49.5752 166.279 49.9091 165.462 50.4097C164.645 50.9103 163.936 51.5676 163.376 52.3435C159.107 58.2738 155.16 67.8498 160.598 79.7928C169.331 98.9694 176.93 108.786 180.02 108.785C180.155 108.786 180.289 108.765 180.417 108.723C182.318 108.079 185.068 104.869 185.566 102.04C185.744 101.027 185.701 99.6165 184.488 98.648C181.001 95.8657 174.742 87.2023 172.789 75.7994C171.71 69.4987 173.803 63.7593 175.748 60.0541C176.57 58.521 176.81 56.7438 176.425 55.0482C176.04 53.3527 175.056 51.8523 173.652 50.8223L173.558 50.7534Z"
            fill="#3F3D56" />
        <path
            d="M168.18 44.2276C171.642 42.3398 172.914 38.0097 171.022 34.5562C169.129 31.1027 164.789 29.8335 161.328 31.7214C157.867 33.6092 156.594 37.9393 158.487 41.3928C160.379 44.8463 164.719 46.1155 168.18 44.2276Z"
            fill="#FFB7B7" />
        <path
            d="M154.709 37.4357H165.023L165.129 35.9583L165.658 37.4357H167.246L167.455 34.5075L168.503 37.4357H171.576V37.2906C171.574 35.2521 170.761 33.2976 169.317 31.8562C167.872 30.4147 165.913 29.6039 163.87 29.6016H162.416C160.372 29.6039 158.414 30.4147 156.969 31.8562C155.524 33.2976 154.711 35.252 154.709 37.2906V37.4357Z"
            fill="#2F2E41" />
        <path
            d="M170.018 42.7461L174.419 41.3212V30.657H166.105L166.311 30.862C169.175 33.7155 172.36 43.8394 170.018 42.7461Z"
            fill="#2F2E41" />
    </g>
</svg>
