<svg width="42" height="42" viewBox="0 0 42 42" fill="none" xmlns="http://www.w3.org/2000/svg">
<path d="M31.5 10.5L10.5 31.5" stroke="#FF2F01" stroke-width="4" stroke-linecap="round" stroke-linejoin="round"/>
<path d="M10.5 10.5L31.5 31.5" stroke="#FF2F01" stroke-width="4" stroke-linecap="round" stroke-linejoin="round"/>
</svg>
