<svg width="38" height="27" viewBox="0 0 38 27" fill="none" xmlns="http://www.w3.org/2000/svg">
<path d="M35.1191 0.494141L12.4375 23.1758L2.88086 13.6191L0.994141 15.5059L11.4941 26.0059L12.4375 26.9082L13.3809 26.0059L37.0059 2.38086L35.1191 0.494141Z" fill="#54FF04"/>
</svg>
