<svg width="22" height="22" viewBox="0 0 22 22" fill="none" xmlns="http://www.w3.org/2000/svg">
<path fill-rule="evenodd" clip-rule="evenodd" d="M9.30274 11L0.55127 2.24853L2.24833 0.551472L10.9998 9.30295L19.7513 0.551472L21.4483 2.24853L12.6969 11L21.4483 19.7515L19.7513 21.4485L10.9998 12.6971L2.24833 21.4485L0.55127 19.7515L9.30274 11Z" fill="white"/>
</svg>
