<svg width="8" height="12" viewBox="0 0 8 12" fill="none" xmlns="http://www.w3.org/2000/svg">
<path d="M2 1.625L7 6L2 10.375" stroke="#F25C05" stroke-width="1.5" stroke-linecap="square" stroke-linejoin="round"/>
</svg>
