<svg width="8" height="13" viewBox="0 0 8 13" fill="none" xmlns="http://www.w3.org/2000/svg">
<path d="M7.41 1.48861L6 0.0786133L0 6.07861L6 12.0786L7.41 10.6686L2.83 6.07861L7.41 1.48861Z" fill="black"/>
</svg>
